[gd_scene load_steps=3 format=3 uid="uid://bm15hpdidjss1"]

[ext_resource type="PackedScene" uid="uid://ccgyk3kyviyd4" path="res://src/scene/ui/Canvas.tscn" id="1"]
[ext_resource type="Script" path="res://src/scene/menu/MainPage.gd" id="2"]

[node name="Main" type="Control"]
layout_mode = 3
anchors_preset = 15
anchor_right = 1.0
anchor_bottom = 1.0
grow_horizontal = 2
grow_vertical = 2
script = ExtResource("2")

[node name="MarginContainer" type="MarginContainer" parent="."]
layout_mode = 0
anchor_right = 1.0
anchor_bottom = 1.0

[node name="VBoxContainer" type="VBoxContainer" parent="MarginContainer"]
layout_mode = 2

[node name="HBoxContainer" type="HBoxContainer" parent="MarginContainer/VBoxContainer"]
layout_mode = 2
alignment = 1

[node name="Label" type="Label" parent="MarginContainer/VBoxContainer/HBoxContainer"]
layout_mode = 2
text = "たって発表する"

[node name="AspectRatioContainer" type="AspectRatioContainer" parent="MarginContainer/VBoxContainer"]
layout_mode = 2
size_flags_vertical = 3
alignment_vertical = 0

[node name="Canvas" parent="MarginContainer/VBoxContainer/AspectRatioContainer" instance=ExtResource("1")]
layout_mode = 2

[node name="Label" type="Label" parent="."]
layout_mode = 0
text = "text"
